Assignment
…
data_cleaned <- data_all
show(data_cleaned)

# A tibble: 1,044 x 34
   school sex     age address famsize Pstatus  Medu  Fedu Mjob  Fjob 
   <chr>  <chr> <dbl> <chr>   <chr>   <chr>   <dbl> <dbl> <chr> <chr>
 1 GP     F        18 U       GT3     A           4     4 at_h~ teac~
 2 GP     F        17 U       GT3     T           1     1 at_h~ other
 3 GP     F        15 U       LE3     T           1     1 at_h~ other
 4 GP     F        15 U       GT3     T           4     2 heal~ serv~
 5 GP     F        16 U       GT3     T           3     3 other other
 6 GP     M        16 U       LE3     T           4     3 serv~ other
 7 GP     M        16 U       LE3     T           2     2 other other
 8 GP     F        17 U       GT3     A           4     4 other teac~
 9 GP     M        15 U       LE3     A           3     2 serv~ other
10 GP     M        15 U       GT3     T           3     4 other other
# ... with 1,034 more rows, and 24 more variables: reason <chr>,
#   guardian <chr>, traveltime <dbl>, studytime <dbl>,
#   failures <dbl>, schoolsup <chr>, famsup <chr>, paid <chr>,
#   activities <chr>, nursery <chr>, higher <chr>, internet <chr>,
#   romantic <chr>, famrel <dbl>, freetime <dbl>, goout <dbl>,
#   Dalc <dbl>, Walc <dbl>, health <dbl>, absences <dbl>, G1 <dbl>,
#   G2 <dbl>, G3 <dbl>, Subject <chr>
…
data_cleaned$goout <- factor(data_cleaned$goout, order = TRUE,
                            levels = c("1", "2", "3", "4", "5"))

data_cleaned$Dalc <- factor(data_cleaned$Dalc, order = TRUE,
                            levels = c("1", "2", "3", "4", "5"))

data_cleaned$Walc <- factor(data_cleaned$Walc, order = TRUE,
                            levels = c("1", "2", "3", "4", "5"))

data_cleaned$health <- factor(data_cleaned$health, order = TRUE,
                            levels = c("1", "2", "3", "4", "5"))
show(data_cleaned)

# A tibble: 1,044 x 34
   school sex     age address famsize Pstatus Medu  Fedu  Mjob  Fjob 
   <fct>  <fct> <dbl> <chr>   <fct>   <fct>   <ord> <ord> <chr> <chr>
 1 0      0        18 U       1       1       4     4     at_h~ teac~
 2 0      0        17 U       1       0       1     1     at_h~ other
 3 0      0        15 U       0       0       1     1     at_h~ other
 4 0      0        15 U       1       0       4     2     heal~ serv~
 5 0      0        16 U       1       0       3     3     other other
 6 0      1        16 U       0       0       4     3     serv~ other
 7 0      1        16 U       0       0       2     2     other other
 8 0      0        17 U       1       1       4     4     other teac~
 9 0      1        15 U       0       1       3     2     serv~ other
10 0      1        15 U       1       0       3     4     other other
# ... with 1,034 more rows, and 24 more variables: reason <fct>,
#   guardian <fct>, traveltime <dbl>, studytime <dbl>,
#   failures <ord>, schoolsup <fct>, famsup <fct>, paid <fct>,
#   activities <fct>, nursery <fct>, higher <fct>, internet <fct>,
#   romantic <fct>, famrel <ord>, freetime <ord>, goout <ord>,
#   Dalc <ord>, Walc <ord>, health <ord>, absences <dbl>, G1 <dbl>,
#   G2 <dbl>, G3 <dbl>, Subject <chr>
…
